…
There are a total of 2304 values in the dataset.

Filling in the missing values with the mean steps per interval:


```r
activity %>%
  group_by(interval) %>%
  mutate(steps = replace_na(steps, mean(steps, na.rm = TRUE)))
```

```
## # A tibble: 17,568 × 3
## # Groups:   interval [288]
##     steps date       interval
##     <dbl> <date>        <int>
##  1 1.72   2012-10-01        0
##  2 0.340  2012-10-01        5
##  3 0.132  2012-10-01       10
##  4 0.151  2012-10-01       15
##  5 0.0755 2012-10-01       20
##  6 2.09   2012-10-01       25
##  7 0.528  2012-10-01       30
##  8 0.868  2012-10-01       35
##  9 0      2012-10-01       40
## 10 1.47   2012-10-01       45
## # … with 17,558 more rows
```
…
